{
  "entry": {
    "main": [
      "./scripts/main.js",
      "./styles/main.scss"
    ],
    "customizer": [
      "./scripts/customizer.js"
    ]
  },
  "publicPath": "/goodyear-th/wp-content/themes/goodyear-th",
  "devUrl": "http://localhost/goodyear-th",
  "proxyUrl": "http://localhost:3000",
  "cacheBusting": "[name]",
  "watch": [
    "app/**/*.php",
    "config/**/*.php",
    "resources/views/**/*.php"
  ],
  "copy": "+(plugins|images|fonts|scripts|styles)/**/*"
}
